{
	"info": {
		"_postman_id": "6dcdd9df-2bf0-4918-816f-de3127bfde9f",
		"name": "API_tests",
		"schema": "https://schema.getpostman.com/json/collection/v2.1.0/collection.json"
	},
	"item": [
		{
			"name": "Dev-tests",
			"item": [
				{
					"name": "Simple",
					"item": [
						{
							"name": "people",
							"event": [
								{
									"listen": "test",
									"script": {
										"exec": [
											"pm.test(\"Status code is 200\", function () {",
											"    pm.response.to.have.status(200);",
											"});",
											"",
											"pm.test(\"Body matches string\", function () {",
											"    pm.expect(pm.response.text()).to.include(\"Paul Bowles\");",
											"});"
										],
										"type": "text/javascript"
									}
								}
							],
							"protocolProfileBehavior": {
								"disabledSystemHeaders": {}
							},
							"request": {
								"method": "GET",
								"header": [],
								"url": {
									"raw": "{{API_URL}}/people",
									"host": [
										"{{API_URL}}"
									],
									"path": [
										"people"
									]
								}
							},
							"response": []
						},
						{
							"name": "books",
							"event": [
								{
									"listen": "test",
									"script": {
										"exec": [
											"pm.test(\"Status code is 200\", function () {",
											"    pm.response.to.have.status(200);",
											"});",
											"",
											"pm.test(\"Body matches string\", function () {",
											"    pm.expect(pm.response.text()).to.include(\"Naked Lunch\");",
											"});"
										],
										"type": "text/javascript"
									}
								}
							],
							"request": {
								"method": "GET",
								"header": [],
								"url": {
									"raw": "{{API_URL}}/books",
									"host": [
										"{{API_URL}}"
									],
									"path": [
										"books"
									]
								}
							},
							"response": []
						},
						{
							"name": "places",
							"event": [
								{
									"listen": "test",
									"script": {
										"exec": [
											"pm.test(\"Status code is 200\", function () {",
											"    pm.response.to.have.status(200);",
											"});",
											"",
											"pm.test(\"Body matches string\", function () {",
											"    pm.expect(pm.response.text()).to.include(\"Mexico\");",
											"});"
										],
										"type": "text/javascript"
									}
								}
							],
							"request": {
								"method": "GET",
								"header": [],
								"url": {
									"raw": "{{API_URL}}/places",
									"host": [
										"{{API_URL}}"
									],
									"path": [
										"places"
									]
								}
							},
							"response": []
						},
						{
							"name": "themes",
							"event": [
								{
									"listen": "test",
									"script": {
										"exec": [
											"pm.test(\"Status code is 200\", function () {",
											"    pm.response.to.have.status(200);",
											"});",
											"",
											"pm.test(\"Body matches string\", function () {",
											"    pm.expect(pm.response.text()).to.include(\"Beat\");",
											"});"
										],
										"type": "text/javascript"
									}
								}
							],
							"request": {
								"method": "GET",
								"header": [],
								"url": {
									"raw": "{{API_URL}}/themes",
									"host": [
										"{{API_URL}}"
									],
									"path": [
										"themes"
									]
								}
							},
							"response": []
						},
						{
							"name": "moreTags",
							"event": [
								{
									"listen": "test",
									"script": {
										"exec": [
											"pm.test(\"Status code is 200\", function () {",
											"    pm.response.to.have.status(200);",
											"});",
											"",
											"pm.test(\"Body matches string\", function () {",
											"    pm.expect(pm.response.text()).to.include(\"Travel\");",
											"});"
										],
										"type": "text/javascript"
									}
								}
							],
							"request": {
								"method": "GET",
								"header": [],
								"url": {
									"raw": "{{API_URL}}/moreTags",
									"host": [
										"{{API_URL}}"
									],
									"path": [
										"moreTags"
									]
								}
							},
							"response": []
						},
						{
							"name": "tags",
							"event": [
								{
									"listen": "test",
									"script": {
										"exec": [
											"pm.test(\"Status code is 200\", function () {",
											"    pm.response.to.have.status(200);",
											"});",
											"",
											"response = pm.response.json();",
											"response.forEach( r => {",
											"    pm.test(\"has the right fields\"),function() {",
											"        pm.expect(r._id).not.eql(null);",
											"        pm.expect(r.category).not.eql(null);",
											"    }",
											"})",
											""
										],
										"type": "text/javascript"
									}
								}
							],
							"request": {
								"method": "GET",
								"header": [],
								"url": {
									"raw": "{{API_URL}}/tags",
									"host": [
										"{{API_URL}}"
									],
									"path": [
										"tags"
									]
								}
							},
							"response": []
						}
					]
				}
			]
		},
		{
			"name": "Deployment-tests",
			"item": [
				{
					"name": "version",
					"event": [
						{
							"listen": "test",
							"script": {
								"exec": [
									"pm.test(\"Status code is 200\", function () {",
									"    pm.response.to.have.status(200);",
									"});",
									"",
									"// make sure that the deployed app has the right version",
									"pm.test(\"Your test name\", function () {",
									"    var jsonData = pm.response.json();",
									"    var correct_version = pm.environment.get(\"APP_VERSION\");",
									"",
									"    console.log(correct_version);",
									"    console.log(jsonData.version);",
									"",
									"    pm.expect(jsonData.version).to.eql(correct_version);",
									"});",
									"",
									""
								],
								"type": "text/javascript"
							}
						}
					],
					"request": {
						"method": "GET",
						"header": [],
						"url": {
							"raw": "{{API_URL}}/info",
							"host": [
								"{{API_URL}}"
							],
							"path": [
								"info"
							]
						}
					},
					"response": []
				}
			]
		}
	]
}