{
	"id": "e5c305a2-d25f-46a0-80df-89b821c09977",
	"name": "Local",
	"values": [
		{
			"key": "API_URL",
			"value": "http://localhost:3001",
			"enabled": true
		}
	],
	"_postman_variable_scope": "environment",
	"_postman_exported_at": "2021-11-02T10:53:26.315Z",
	"_postman_exported_using": "Postman/9.1.2"
}